{
  "state": "completed",
  "tasks": [
    {
      "state": "completed",
      "title": "t11",
      "volunteer_id": "__REPLACE__",
      "due_date": "__REPLACE__",
      "description": "d11"
    },
     {
      "state": "__undefined__",
      "title": "t11rt",
      "volunteer_id": "__REPLACE__",
      "due_date": "__REPLACE__",
      "description": "d11"
    }
  ],
  "petitioner_id": "__REPLACE__",
  "description": "desc goes here",
  "title": "title goes here"
}